{
  "auction": {
    "dealer": "S",
    "is_doubled": null,
    "player_calls": [
      {
        "call": "Pass",
        "player": {
          "name": "alexis",
          "seat": "S"
        }
      },
      {
        "call": "1♠",
        "player": {
          "name": "bob",
          "seat": "W"
        }
      },
      {
        "call": "Pass",
        "player": {
          "name": "aaron",
          "seat": "N"
        }
      },
      {
        "call": "Pass",
        "player": {
          "name": "ana",
          "seat": "E"
        }
      },
      {
        "call": "Pass",
        "player": {
          "name": "alexis",
          "seat": "S"
        }
      }
    ]
  },
  "dealt_cards_by_seat": {
    "N": null,
    "E": [
      "♣3",
      "♣6",
      "♣7",
      "♣9",
      "♣K",
      "♦8",
      "♦9",
      "♦K",
      "♥2",
      "♥T",
      "♥A",
      "♠3",
      "♠8"
    ],
    "S": null,
    "W": [
      "♣2",
      "♣8",
      "♣T",
      "♣J",
      "♣Q",
      "♦6",
      "♦A",
      "♥7",
      "♥8",
      "♠6",
      "♠7",
      "♠9",
      "♠K"
    ]
  },
  "ew_vuln": false,
  "ns_vuln": true,
  "table": [
    {
      "name": "aaron",
      "seat": "N"
    },
    {
      "name": "ana",
      "seat": "E"
    },
    {
      "name": "alexis",
      "seat": "S"
    },
    {
      "name": "bob",
      "seat": "W"
    }
  ],
  "tricks": [
    {
      "plays": [
        {
          "card": "♠4",
          "seat": "N",
          "wins_the_trick": false
        },
        {
          "card": "♠3",
          "seat": "E",
          "wins_the_trick": false
        },
        {
          "card": "♠2",
          "seat": "S",
          "wins_the_trick": false
        },
        {
          "card": "♠6",
          "seat": "W",
          "wins_the_trick": true
        }
      ],
      "trump_suit": "♠"
    },
    {
      "plays": [
        {
          "card": "♠7",
          "seat": "W",
          "wins_the_trick": false
        },
        {
          "card": "♠T",
          "seat": "N",
          "wins_the_trick": true
        },
        {
          "card": "♠8",
          "seat": "E",
          "wins_the_trick": false
        },
        {
          "card": "♠5",
          "seat": "S",
          "wins_the_trick": false
        }
      ],
      "trump_suit": "♠"
    },
    {
      "plays": [
        {
          "card": "♥3",
          "seat": "N",
          "wins_the_trick": false
        },
        {
          "card": "♥2",
          "seat": "E",
          "wins_the_trick": false
        },
        {
          "card": "♥5",
          "seat": "S",
          "wins_the_trick": false
        },
        {
          "card": "♥7",
          "seat": "W",
          "wins_the_trick": true
        }
      ],
      "trump_suit": "♠"
    },
    {
      "plays": [
        {
          "card": "♣2",
          "seat": "W",
          "wins_the_trick": false
        },
        {
          "card": "♣4",
          "seat": "N",
          "wins_the_trick": false
        },
        {
          "card": "♣3",
          "seat": "E",
          "wins_the_trick": false
        },
        {
          "card": "♣5",
          "seat": "S",
          "wins_the_trick": true
        }
      ],
      "trump_suit": "♠"
    },
    {
      "plays": [
        {
          "card": "♦2",
          "seat": "S",
          "wins_the_trick": false
        }
      ],
      "trump_suit": "♠"
    }
  ]
}
